objid	container	server_template_crc	cell_index	px	py	pz	qw	qx	qy	qz	scripts	objvars
i	i	h	i	f	f	f	f	f	f	f	s	p
1414856	0	object/building/military/pirate_outpost.iff	0	1197.51	79.5	1609.07	-0.256311	0	0.966594	0		$|
5495389	0	object/static/structure/general/prp_junk_s8.iff	0	1131.95	79.0193	1583.54	-0.657816	-0.152553	0.322969	0.663096		$|
5495391	0	object/static/structure/general/prp_junk_s6.iff	0	1137.5	80.7874	1606.84	0.741831	0	0	0.670587		$|
5495395	0	object/static/structure/general/prp_junk_s2.iff	0	1109.66	74.0932	1535.46	-0.103845	0.400537	0.890401	0.189665		$|
5495396	0	object/static/structure/general/prp_junk_s1.iff	0	1106.74	73.1531	1538.29	0.837158	0.119021	-0.501289	-0.183603		$|
5495397	0	object/static/structure/general/prp_junk_s4.iff	0	1133.48	81.1504	1608.48	0.963771	0	0.266731	0		$|
5495398	0	object/static/structure/general/prp_junk_s4.iff	0	1130.53	81.2839	1610.15	0.872745	0	-0.488177	0		$|
5495399	0	object/static/structure/general/prp_junk_s4.iff	0	1130.07	81.285	1606.44	-0.272313	0	0.962209	0		$|
5495407	0	object/static/flora/flora_tree_rori_mkpodtree.iff	0	1202.14	80.9629	1618.93	0.934229	0.0039733	-0.356125	-0.0193671		$|
5495431	0	object/static/structure/general/prp_junk_s6.iff	0	1110.23	73.6841	1536.64	0.571476	0.663642	-0.3953	-0.277007		$|
5495432	0	object/static/structure/general/prp_junk_s6.iff	0	1106.86	73.4095	1540.2	0.277714	0.722438	-0.633078	0.0130581		$|
5495433	0	object/static/structure/general/prp_junk_s4.iff	0	1178.36	81.2651	1547.53	-0.0349929	0	0.999388	0		$|
5495434	0	object/static/structure/general/prp_junk_s4.iff	0	1181.55	81.2701	1547.48	0.999388	0	0.0349929	0		$|
5495435	0	object/static/structure/general/prp_junk_s4.iff	0	1184.7	80.6071	1547.19	0.68193	0	0.731417	0		$|
5495436	0	object/static/structure/general/prp_junk_s2.iff	0	1176.84	80.9408	1548.13	-0.161607	0.0732562	0.98064	0.0828407		$|
5495451	0	object/static/structure/general/prp_junk_s2.iff	0	1115.77	76.2361	1548.02	-0.115538	0	0.993303	0		$|
5495452	0	object/static/structure/general/prp_junk_s2.iff	0	1107.23	77.4895	1561.09	0.906344	0.0130125	0.274379	0.321072		$|
5495453	0	object/static/structure/general/prp_junk_s1.iff	0	1108.21	76.977	1561.92	0.976671	0.13332	-0.0244221	0.166562		$|
5565360	0	object/static/structure/general/campfire_fresh.iff	0	1174.29	76	1631.32	1	0	0	0		$|
5565369	0	object/static/structure/general/campfire_fresh.iff	0	1215.83	76	1575.58	1	0	0	0		$|
5565374	0	object/tangible/furniture/all/frn_all_tiki_torch_s1.iff	0	1110.12	76	1560.84	1	0	0	0		$|
5565376	0	object/tangible/furniture/all/frn_all_tiki_torch_s1.iff	0	1169.23	76	1592.67	1	0	0	0		$|
5565377	0	object/tangible/furniture/all/frn_all_tiki_torch_s1.iff	0	1185.15	76.046	1579.57	1	0	0	0		$|
5565378	0	object/tangible/furniture/all/frn_all_tiki_torch_s1.iff	0	1227.7	76.0029	1569.13	1	0	0	0		$|
5565379	0	object/tangible/furniture/all/frn_all_tiki_torch_s1.iff	0	1161.82	75.8277	1613.65	1	0	0	0		$|
5565380	0	object/tangible/furniture/all/frn_all_tiki_torch_s1.iff	0	1176.93	75.5882	1645.54	1	0	0	0		$|
5565393	0	object/static/structure/tatooine/antenna_tatt_style_2.iff	0	1089.25	74.8233	1569.1	0.365531	0	0.930799	0		$|
5665450	0	object/building/endor/endor_tiki_torch.iff	0	330.094	37.5431	16.605	0.995941	0.0848594	-0.00254655	-0.0298872		$|
5665452	0	object/building/endor/endor_tiki_torch.iff	0	290.208	28.7479	2.34672	1	0	0	0		$|
5665453	0	object/building/endor/endor_tiki_torch.iff	0	356.316	34.8818	17.106	0.987432	-0.139151	0.0104559	-0.0741966		$|
5665454	0	object/building/endor/endor_tiki_torch.iff	0	312.707	35.7269	17.6886	0.996043	-0.0548377	-0.00384492	0.0698371		$|
5665455	0	object/building/endor/endor_tiki_torch.iff	0	339.986	38.6057	17.3125	0.995642	-0.0248962	-0.00224673	0.0898505		$|
5665456	0	object/building/endor/endor_forest_hut.iff	0	294.292	29.0496	5.17921	-0.294759	0	0.955572	0		$|
5665457	0	object/building/endor/endor_forest_hut.iff	0	374.542	30.9328	5.7434	0.163467	0	0.986549	0		$|
5665458	0	object/building/endor/endor_tiki_torch.iff	0	377.75	30.7404	2.73431	1	0	0	0		$|
5665459	0	object/static/structure/dantooine/dant_rack_spears.iff	0	373.196	30.74	3.42018	-0.310477	0.0237613	0.950252	-0.00776353		$|
5665461	0	object/static/structure/dantooine/dant_rack_spears.iff	0	294.091	28.7904	2.17875	-0.250103	-0.0196122	0.967875	-0.0168068		$|
5665464	0	object/static/structure/dantooine/dant_boundary_post.iff	0	331.774	34.965	32.6622	0.281922	0	0.959437	0		$|
5665465	0	object/static/structure/dantooine/dant_boundary_post.iff	0	338.521	34.8368	32.4778	-0.36553	0	0.930799	0		$|
6015488	0	object/building/general/endor_jinda_cave.iff	0	335.15	29.3321	52.8094	-3.20013e-008	0	1	0		$|
6645544	0	object/static/installation/mockup_power_generator_fusion_style_1.iff	0	1148.02	78	1554.2	0.946042	0	-0.324043	0		$|
6645545	0	object/static/installation/mockup_power_generator_fusion_style_1.iff	0	1153.92	78	1558.81	0.946042	0	-0.324043	0		$|
6645546	0	object/static/structure/corellia/corl_power_connector.iff	0	1155.86	79.0855	1549.79	-0.668953	0.668953	0.229133	0.229133		$|
6645602	0	object/building/corellia/ply_corl_house_s_s01_fp1.iff	0	1182.01	80	1557.56	0.9992	0	0.0399893	0		$|
6645687	0	object/tangible/crafting/station/public_food_station.iff	0	1190.93	80	1562.24	0.678264	0	0.734818	0		$|
6645688	0	object/tangible/crafting/station/public_food_station.iff	0	1190.32	80.0019	1554.51	0.678264	0	0.734818	0		$|
6645689	0	object/tangible/crafting/station/public_weapon_station.iff	0	1172.78	80.0054	1556.64	0.734818	0	-0.678264	0		$|
6645690	0	object/tangible/crafting/station/public_clothing_station.iff	0	1172.41	80.0131	1554.44	0.9992	0	0.0399893	0		$|
6645691	0	object/tangible/crafting/station/public_weapon_station.iff	0	1188.49	79.5005	1610.55	0.867819	0	-0.49688	0		$|
6645694	0	object/tangible/crafting/station/public_clothing_station.iff	0	1187.15	79.5	1608.73	0.96639	0	0.257081	0		$|
6645695	0	object/tangible/terminal/terminal_mission.iff	0	1185.98	80	1565.59	0.9992	0	0.0399893	0		$|
6645697	0	object/tangible/terminal/terminal_mission.iff	0	1182.31	80	1565.9	0.9992	0	0.039989	0		$|
6645699	0	object/tangible/crafting/station/public_structure_station.iff	0	1082.44	73	1560.21	-0.361987	0	0.932183	0		$|
6645701	0	object/tangible/terminal/terminal_mission_bounty.iff	0	1139.99	80	1611.37	0.493228	0	0.8699	0		$|
6645703	0	object/tangible/terminal/terminal_mission_bounty.iff	0	1143.48	80	1617.12	0.493228	0	0.8699	0		$|
6645705	0	object/tangible/terminal/terminal_mission.iff	0	1190.75	79.4983	1604.12	-0.253016	0	0.967462	0		$|
6645707	0	object/tangible/terminal/terminal_mission.iff	0	1196.61	79.4862	1600.74	-0.253016	0	0.967462	0		$|
6645744	0	object/tangible/camp/camp_tent_s4.iff	0	1167.61	76	1631.28	3.20013e-008	0	1	0		$|
6645745	0	object/tangible/camp/camp_tent_s3.iff	0	1180.4	76	1627.63	0.992198	0	0.124675	0		$|
6645746	0	object/tangible/camp/camp_tent_s3.iff	0	1180.15	76	1636.18	0.989506	0	-0.144492	0		$|
6645748	0	object/tangible/camp/camp_tent_s5.iff	0	1222	76	1580.03	0.902611	0	-0.430458	0		$|
6645749	0	object/tangible/camp/camp_tent_s1.iff	0	1213.42	76	1580.84	0.130424	0	0.991458	0		$|
6645750	0	object/tangible/camp/camp_tent_s2.iff	0	1221.64	76	1568.62	0.993395	0	-0.114747	0		$|
6645751	0	object/tangible/camp/camp_tent_s2.iff	0	1215.85	76	1567.48	1	0	0	0		$|
6645752	0	object/tangible/camp/camp_tent_s2.iff	0	1210.1	76	1568.31	0.993395	0	0.114747	0		$|
6645759	0	object/static/structure/general/streetlamp_small_red_style_01.iff	0	1215.43	74.5137	1575.37	1	0	0	0		$|
6645760	0	object/static/structure/general/streetlamp_small_red_style_01.iff	0	1174.3	74.4504	1631.26	1	0	0	0		$|
6645762	0	object/tangible/furniture/all/frn_all_tiki_torch_s1.iff	0	1115.02	76.0537	1549.88	1	0	0	0		$|
6645763	0	object/static/structure/general/streetlamp_small_red_style_01.iff	0	1063	76.8897	1565	-3.20013e-008	1	0	0		$|
6645764	0	object/static/structure/general/streetlamp_small_red_style_01.iff	0	1081.58	76.8897	1546.27	-3.20013e-008	1	0	0		$|
6645765	0	object/static/structure/tatooine/debris_tatt_radar_dish.iff	0	1213.08	76.3877	1587.58	0.907613	-0.41445	-0.0448243	-0.0496034		$|
6645766	0	object/static/structure/tatooine/debris_tatt_crate_1.iff	0	1222.09	76	1583.89	0.738469	0	0.674288	0		$|
6645767	0	object/static/structure/tatooine/debris_tatt_crate_1.iff	0	1223.33	76	1583.61	0.536088	0	0.844162	0		$|
6645768	0	object/static/structure/tatooine/debris_tatt_drum_storage_2.iff	0	1221.08	76	1583.75	0.272314	0	0.962209	0		$|
6645769	0	object/static/structure/tatooine/debris_tatt_crate_metal_1.iff	0	1219.77	76	1568.71	0.783822	0	0.620986	0		$|
6645770	0	object/static/structure/tatooine/debris_tatt_crate_metal_1.iff	0	1220.01	76	1567.7	0.783822	0	0.620986	0		$|
6645771	0	object/static/structure/tatooine/debris_tatt_crate_metal_1.iff	0	1214.09	76	1568.02	0.707388	0	0.706826	0		$|
6645772	0	object/static/structure/tatooine/debris_tatt_crate_metal_1.iff	0	1214.09	76	1566.99	0.707388	0	0.706826	0		$|
6645773	0	object/static/structure/tatooine/debris_tatt_crate_metal_1.iff	0	1208.45	76	1569.13	0.780707	0	-0.624897	0		$|
6645774	0	object/static/structure/tatooine/debris_tatt_drum_storage_2.iff	0	1208.26	76	1568.24	0.780707	0	-0.624897	0		$|
6645784	0	object/static/structure/general/prp_junk_s6.iff	0	1210.18	75.9526	1586.97	0.819332	0.206814	-0.48267	-0.230114		$|
6645786	0	object/static/structure/general/prp_junk_s8.iff	0	1215.99	76.246	1586.98	0.708453	-0.394261	0.159148	-0.563316		$|
6645787	0	object/static/item/item_container_inorganic_minerals.iff	0	1190.52	80	1557.63	0.999388	0	0.0349929	0		$|
6705352	0	object/building/military/outpost_starport.iff	0	1070.41	73	1554.06	-0.362358	0	0.932039	0	structure.municipal.starport	travel.air_time|0|60|travel.cost|0|150|travel.ground_time|0|300|travel.point_name|4|Smuggler's Outpost|travel.shuttle_available|0|1|travel.version|0|3|$|
18000399	6705352	object/cell/cell.iff	1	0	0	0	1	0	0	0		$|
18005284	18000399	object/tangible/terminal/terminal_space.iff	1	-7.44324922561646	.146595031023026	-19.2488059997559	1.00	0.00	0.00	0.00	space.terminal.terminal_space	$|
6705354	0	object/building/military/outpost_cloning_facility.iff	0	1135.49	80	1618.06	0.488872	0	0.872356	0		$|
7075704	0	object/static/item/item_container_inorganic_chemicals.iff	0	1190.79	80	1559.14	0.793048	0	-0.609159	0		$|
7075705	0	object/static/item/item_container_inorganic_chemicals.iff	0	1190.9	80	1559.91	0.724837	0	-0.688921	0		$|
7075706	0	object/static/item/item_container_organic_food.iff	0	1188.81	80.4748	1551.99	0.68193	0	0.731417	0		$|
7075707	0	object/static/item/item_container_organic_food.iff	0	1188.79	80.4794	1551.62	0.68193	0	0.731418	0		$|
7075708	0	object/static/item/item_container_organic_food.iff	0	1188.76	80.4809	1551.25	0.68193	0	0.731418	0		$|
7075709	0	object/static/item/item_container_organic_food.iff	0	1188.73	80.4787	1550.9	0.68193	0	0.731418	0		$|
7075710	0	object/static/structure/tatooine/debris_tatt_crate_metal_1.iff	0	1189.97	80.0034	1552.03	0.617686	0	0.786425	0		$|
7075711	0	object/static/item/item_container_inorganic_minerals.iff	0	1173.36	80	1561.16	0.9992	0	0.0399893	0		$|
7075713	0	object/static/item/item_container_energy_radioactive.iff	0	1173.66	80	1562.93	0.99639	0	0.0848977	0		$|
7075714	0	object/static/item/item_vibroaxe.iff	0	1174.17	80.9802	1560.03	0.0154375	0.993267	-0.114652	0.00601479		$|
7075715	0	object/static/item/item_vibrolance.iff	0	1173.39	80.9399	1561.3	0.587469	-0.36621	-0.386375	0.609495		$|
7075716	0	object/static/structure/tatooine/debris_tatt_drum_storage_1.iff	0	1190.65	79.5331	1613.86	0.981048	0	0.193767	0		$|
7075717	0	object/static/structure/tatooine/debris_tatt_drum_dented_1.iff	0	1191.15	79.5253	1614.75	0.965092	0	0.261909	0		$|
7075718	0	object/static/structure/corellia/corl_power_transformer_s01.iff	0	1208.08	79.5219	1607.83	0.497571	0	0.867423	0		$|
7075719	0	object/static/structure/corellia/corl_power_arial_thin.iff	0	1207.47	79.8525	1611.16	0.967663	0	0.252245	0		$|
7075720	0	object/static/item/item_medic_bacta_tank_advanced.iff	0	1204.94	79.5001	1605.57	0.50622	0	0.862404	0		$|
7075721	0	object/static/item/item_medic_bacta_tank_advanced.iff	0	1204.59	79.5	1604.89	0.50622	0	0.862404	0		$|
7075722	0	object/static/item/item_medic_bacta_tank.iff	0	1204.09	79.5001	1604.22	0.504846	0	0.863209	0		$|
7075723	0	object/static/item/item_medic_bacta_tank.iff	0	1203.77	79.5	1603.61	0.504846	0	0.863209	0		$|
7075724	0	object/static/item/item_medic_bacta_tank.iff	0	1203.29	79.5	1603.02	0.365531	0	0.930799	0		$|
7075725	0	object/static/structure/tatooine/debris_tatt_crate_1.iff	0	1166.95	76	1628.04	-0.700285	0	0.713864	0		$|
7075726	0	object/static/structure/tatooine/debris_tatt_crate_metal_1.iff	0	1167.95	76	1628	0.990901	0	-0.13459	0		$|
7075727	0	object/static/item/item_container_energy_liquid.iff	0	1167.34	76	1634.42	1	0	0	0		$|
7075728	0	object/static/item/item_container_energy_liquid.iff	0	1167.03	76	1634.34	0.160104	0	0.9871	0		$|
7075729	0	object/static/item/item_container_energy_liquid.iff	0	1166.7	76	1634.47	0.399339	0	0.916803	0		$|
7075730	0	object/static/item/item_container_inorganic_gas.iff	0	1167.93	76	1634.39	0.717911	0	-0.696135	0		$|
7075731	0	object/static/item/item_container_organic_food.iff	0	1170.08	76	1629.98	0.748499	0	0.663136	0		$|
7075732	0	object/static/item/item_container_organic_structure.iff	0	1144.17	80	1622.1	0.496189	0	0.868215	0		$|
7075733	0	object/static/item/item_container_organic_structure.iff	0	1143.54	80	1622.49	0.496189	0	0.868215	0		$|
7075734	0	object/static/item/item_container_organic_hide.iff	0	1142.88	80	1622.95	0.488872	0	0.872356	0		$|
7075735	0	object/static/item/item_container_inorganic_gas.iff	0	1140.87	80	1624.14	0.493228	0	0.8699	0		$|
7075736	0	object/static/item/item_container_inorganic_gas.iff	0	1140.22	80	1624.48	0.577609	0	0.816313	0		$|
7075737	0	object/static/item/item_container_energy_gas.iff	0	1139.33	80	1625.02	-0.267499	0	0.963558	0		$|
7075738	0	object/static/item/item_container_inorganic_gas.iff	0	1140.52	80.4427	1624.33	0.519099	0	0.854714	0		$|
7075739	0	object/static/structure/tatooine/palette_tatooine_style_01.iff	0	1154.61	78	1551.73	0.982004	0	-0.188859	0		$|
7075741	0	object/static/item/item_container_energy_radioactive.iff	0	1155.47	78.1265	1551.3	0.833712	0	0.552199	0		$|
7075742	0	object/static/item/item_container_energy_radioactive.iff	0	1154.32	78.1265	1550.83	0.833712	0	0.5522	0		$|
7075743	0	object/static/item/item_container_energy_radioactive.iff	0	1155.01	78.1265	1552.47	0.833712	0	0.5522	0		$|
7075744	0	object/static/item/item_container_energy_radioactive.iff	0	1153.83	78.1265	1551.96	0.833712	0	0.5522	0		$|
7075746	0	object/static/item/item_container_energy_solid.iff	0	1147.87	78.0949	1552.09	0.946042	0	-0.324043	0		$|
7075747	0	object/static/item/item_container_energy_solid.iff	0	1148.2	78.0949	1551.65	0.946042	0	-0.324043	0		$|
7075748	0	object/static/item/item_container_energy_solid.iff	0	1148.53	78.0949	1551.21	0.946042	0	-0.324043	0		$|
7075749	0	object/static/item/item_container_energy_liquid.iff	0	1148.99	78.0949	1550.95	1	0	0	0		$|
7075750	0	object/static/item/item_container_energy_liquid.iff	0	1148.96	78.0949	1550.58	0.96639	0	-0.257081	0		$|
7075751	0	object/static/item/item_crate_spice.iff	0	1088.92	73	1554.69	-0.390152	0	0.920751	0		$|
7075752	0	object/static/item/item_crate_spice.iff	0	1088.24	73	1555.27	-0.390152	0	0.920751	0		$|
7075753	0	object/static/item/item_container_organic_structure.iff	0	1076.5	73	1566.21	0.913089	0	-0.407761	0		$|
7075754	0	object/static/item/item_container_organic_structure.iff	0	1077.02	73	1565.71	0.913089	0	-0.40776	0		$|
7075755	0	object/static/item/item_container_organic_structure.iff	0	1081.11	73	1561.56	0.950796	0	-0.309816	0		$|
7875566	0	object/static/structure/general/streetlamp_small_style_01.iff	0	1184.2	78.3872	1566.33	1	0	0	0		$|
8445629	0	object/building/military/military_base_gate_house_imperial.iff	0	94.5851	142.581	1052.11	0.0791209	0	0.996865	0		$|
8445632	0	object/static/structure/general/banner_imperial_style_01.iff	0	93.9697	143.283	1062.98	0.998201	0	-0.059964	0		$|
8445636	0	object/static/structure/tatooine/antenna_tatt_style_1.iff	0	95.95	142.562	1058.59	1	0	0	0		$|
8445637	0	object/static/structure/corellia/corl_power_arial_thin.iff	0	87.5428	141.84	1055.38	1	0	0	0		$|
8445638	0	object/static/item/item_container_energy_liquid.iff	0	89.0034	143.114	1050.65	1	0	0	0		$|
8445639	0	object/static/item/item_container_energy_liquid.iff	0	88.4792	143.211	1050.76	0.808027	-0.589145	0	0		$|
8445640	0	object/static/item/item_container_energy_solid.iff	0	88.3916	143.129	1051.46	0.997551	0.0699428	0	0		$|
8445641	0	object/static/item/item_container_electronics.iff	0	88.458	142.921	1056.36	1	0	0	0		$|
8445642	0	object/static/item/item_container_energy_liquid.iff	0	89.051	142.879	1057.45	1	0	0	0		$|
8445643	0	object/static/item/item_container_organic_food.iff	0	88.1552	142.99	1057.35	1	0	0	0		$|
