spawns	name	room	loc_x	loc_y	loc_z	yaw	script	mood	animation_mood	respawn_time	spawn_objvar	special_room	special_room_script	room_objvar	room_objvar_name	room_objvar_value	planet_level
s	s	s	f	f	f	f	s	s	s	i	s	s	s	s	s	s	i[0]
nightsister_stalker		world	-2930.395752	141.9185486	-1027.466187	128	theme_park.dungeon.generic_death			10800	int:ai.defaultCalmBehavior=1						1
nightsister_stalker		world	-2929.4	142.4	-1024.6	118	theme_park.dungeon.generic_death	nervous		10800	int:ai.defaultCalmBehavior=1						1
